<?xml version="1.0" encoding="UTF-8" standalone="no"?>
<!-- Created with Inkscape (http://www.inkscape.org/) -->

<svg
   xmlns:dc="http://purl.org/dc/elements/1.1/"
   xmlns:cc="http://creativecommons.org/ns#"
   xmlns:rdf="http://www.w3.org/1999/02/22-rdf-syntax-ns#"
   xmlns:svg="http://www.w3.org/2000/svg"
   xmlns="http://www.w3.org/2000/svg"
   xmlns:sodipodi="http://sodipodi.sourceforge.net/DTD/sodipodi-0.dtd"
   xmlns:inkscape="http://www.inkscape.org/namespaces/inkscape"
   width="29.485971mm"
   height="122.76326mm"
   viewBox="0 0 29.485971 122.76326"
   version="1.1"
   id="svg8"
   inkscape:version="0.92.4 (5da689c313, 2019-01-14)"
   sodipodi:docname="enderman.svg">
  <defs
     id="defs2" />
  <sodipodi:namedview
     id="base"
     pagecolor="#ffffff"
     bordercolor="#666666"
     borderopacity="1.0"
     inkscape:pageopacity="0.0"
     inkscape:pageshadow="2"
     inkscape:zoom="4.4022754"
     inkscape:cx="75.572846"
     inkscape:cy="179.45311"
     inkscape:document-units="mm"
     inkscape:current-layer="layer2"
     showgrid="false"
     inkscape:window-width="1440"
     inkscape:window-height="835"
     inkscape:window-x="0"
     inkscape:window-y="0"
     inkscape:window-maximized="1">
    <inkscape:grid
       type="xygrid"
       id="grid836"
       originx="50.410068"
       originy="48.950752" />
  </sodipodi:namedview>
  <metadata
     id="metadata5">
    <rdf:RDF>
      <cc:Work
         rdf:about="">
        <dc:format>image/svg+xml</dc:format>
        <dc:type
           rdf:resource="http://purl.org/dc/dcmitype/StillImage" />
        <dc:title />
      </cc:Work>
    </rdf:RDF>
  </metadata>
  <g
     inkscape:label="Layer 1"
     inkscape:groupmode="layer"
     id="layer1"
     transform="translate(26.975544,-163.4675)">
    <rect
       style="fill:none;fill-opacity:0.91818183;stroke:none;stroke-width:0.37804693;stroke-miterlimit:4;stroke-dasharray:none;stroke-opacity:1"
       id="rect815"
       width="64"
       height="64"
       x="23.434523"
       y="173.28" />
    <rect
       style="fill:#50a66f;fill-opacity:1;stroke:none;stroke-width:0.93453741;stroke-miterlimit:4;stroke-dasharray:none;stroke-opacity:1"
       id="rect838-3"
       width="29.346727"
       height="25"
       x="-2.3711836"
       y="163.4675"
       transform="scale(-1,1)" />
    <rect
       style="fill:#030604;fill-opacity:1;stroke:none;stroke-width:0.43127757;stroke-miterlimit:4;stroke-dasharray:none;stroke-opacity:1"
       id="rect838-3-4"
       width="12.5"
       height="12.5"
       x="-2.3711836"
       y="175.9675"
       transform="scale(-1,1)" />
    <rect
       style="fill:#020503;fill-opacity:1;stroke:none;stroke-width:0.43127757;stroke-miterlimit:4;stroke-dasharray:none;stroke-opacity:1"
       id="rect838-3-4-1"
       width="12.5"
       height="12.5"
       x="-2.3711836"
       y="163.4675"
       transform="scale(-1,1)" />
    <rect
       style="fill:#010101;fill-opacity:1;stroke:none;stroke-width:0.2934016;stroke-miterlimit:4;stroke-dasharray:none;stroke-opacity:1"
       id="rect838-3-4-4"
       width="9.0394344"
       height="8"
       x="10.128817"
       y="167.9675"
       transform="scale(-1,1)" />
    <rect
       style="fill:#000000;fill-opacity:1;stroke:none;stroke-width:0.43127757;stroke-miterlimit:4;stroke-dasharray:none;stroke-opacity:1"
       id="rect838-3-4-9"
       width="12.5"
       height="12.5"
       x="10.128817"
       y="175.9675"
       transform="scale(-1,1)" />
    <rect
       style="fill:#0c1911;fill-opacity:1;stroke:none;stroke-width:0.27601764;stroke-miterlimit:4;stroke-dasharray:none;stroke-opacity:1"
       id="rect838-3-4-4-2"
       width="8"
       height="8"
       x="18.975544"
       y="172.4675"
       transform="scale(-1,1)" />
    <rect
       style="fill:#000000;fill-opacity:1;stroke:none;stroke-width:0.27601764;stroke-miterlimit:4;stroke-dasharray:none;stroke-opacity:1"
       id="rect838-3-4-4-0"
       width="8"
       height="8"
       x="18.975544"
       y="180.4675"
       transform="scale(-1,1)" />
    <rect
       style="fill:#0b1710;fill-opacity:1;stroke:none;stroke-width:0.29276091;stroke-miterlimit:4;stroke-dasharray:none;stroke-opacity:1"
       id="rect838-3-4-4-6"
       width="8"
       height="9"
       x="18.975544"
       y="163.4675"
       transform="scale(-1,1)" />
    <rect
       style="fill:#050b08;fill-opacity:1;stroke:none;stroke-width:0.2200512;stroke-miterlimit:4;stroke-dasharray:none;stroke-opacity:1"
       id="rect838-3-4-4-8"
       width="9.0394344"
       height="4.5"
       x="10.128817"
       y="163.4675"
       transform="scale(-1,1)" />
    <g
       id="g1143-8"
       transform="matrix(-0.88642681,0.01004172,-0.00368151,-2.4178296,-3.8540522,756.0354)"
       style="fill:#303030;fill-opacity:1;stroke:#ffffff;stroke-width:0.03221255;stroke-miterlimit:4;stroke-dasharray:none;stroke-opacity:1">
      <rect
         y="194.45187"
         x="10.248082"
         height="30"
         width="10"
         id="rect838-4-7-6"
         style="fill:#303030;fill-opacity:1;stroke:#ffffff;stroke-width:0.03221255;stroke-miterlimit:4;stroke-dasharray:none;stroke-opacity:1" />
    </g>
    <g
       id="g1143-88"
       transform="matrix(-0.88592433,0.0100543,-0.00367941,-2.4208592,12.290593,756.72863)"
       style="fill:#1f1f1f;fill-opacity:1;stroke:#ffffff;stroke-width:0.03221255;stroke-miterlimit:4;stroke-dasharray:none;stroke-opacity:1">
      <rect
         y="194.45187"
         x="10.248082"
         height="30"
         width="10"
         id="rect838-4-7-4"
         style="fill:#1f1f1f;fill-opacity:1;stroke:#ffffff;stroke-width:0.03221255;stroke-miterlimit:4;stroke-dasharray:none;stroke-opacity:1" />
    </g>
  </g>
  <g
     inkscape:groupmode="layer"
     id="layer2"
     inkscape:label="Layer 2"
     transform="translate(50.410067,9.8125048)">
    <rect
       style="fill:#ffffff;fill-opacity:1;stroke:none;stroke-width:0.46298468;stroke-miterlimit:4;stroke-dasharray:none;stroke-opacity:1"
       id="rect896-2"
       width="9.5604792"
       height="3.0238097"
       x="37.122116"
       y="2.6874952"
       transform="scale(-1,1)" />
    <rect
       style="fill:#cec82d;fill-opacity:1;stroke:none;stroke-width:0.32807893;stroke-miterlimit:4;stroke-dasharray:none;stroke-opacity:1"
       id="rect896-2-3"
       width="4.8006835"
       height="3.0238097"
       x="41.881912"
       y="2.6874952"
       transform="scale(-1,1)" />
    <rect
       transform="scale(-1,1)"
       style="fill:#000000;fill-opacity:1;stroke:none;stroke-width:0.90307605;stroke-miterlimit:4;stroke-dasharray:none;stroke-opacity:1"
       id="rect838-4"
       width="25"
       height="27.40406"
       x="21.063339"
       y="15.187499" />
    <g
       id="g1143"
       transform="matrix(-0.99526593,0.01005369,-0.00413353,-2.4207119,-12.483335,558.31726)"
       style="fill:#000000;fill-opacity:1;stroke:#ffffff;stroke-width:0.03221255;stroke-miterlimit:4;stroke-dasharray:none;stroke-opacity:1">
      <rect
         y="194.45187"
         x="10.248082"
         height="30"
         width="10"
         id="rect838-4-7"
         style="fill:#000000;fill-opacity:1;stroke:#ffffff;stroke-width:0.03221255;stroke-miterlimit:4;stroke-dasharray:none;stroke-opacity:1" />
    </g>
  </g>
</svg>
